uart_tb.vcd
$date
	Sat Mar 21 19:14:56 2026
$end
$version
	Icarus Verilog
$end
$timescale
	1s
$end
$scope module uart_tb $end
$var wire 8 ! wb_rdata [7:0] $end
$var wire 1 " wb_ack $end
$var wire 1 # irq $end
$var reg 1 $ clk $end
$var reg 1 % rst_n $end
$var reg 4 & wb_addr [3:0] $end
$var reg 1 ' wb_cyc $end
$var reg 1 ( wb_stb $end
$var reg 8 ) wb_wdata [7:0] $end
$var reg 1 * wb_we $end
$scope module uart_wb_inst $end
$var wire 4 + addr [3:0] $end
$var wire 1 $ clk $end
$var wire 1 , read_en $end
$var wire 1 % rst_n $end
$var wire 4 - wb_addr [3:0] $end
$var wire 1 ' wb_cyc $end
$var wire 8 . wb_rdata [7:0] $end
$var wire 1 ( wb_stb $end
$var wire 8 / wb_wdata [7:0] $end
$var wire 1 * wb_we $end
$var wire 8 0 wdata [7:0] $end
$var wire 1 1 write_en $end
$var wire 8 2 rdata [7:0] $end
$var wire 1 # irq $end
$var parameter 32 3 BAUD_RATE $end
$var parameter 32 4 CLK_FREQ $end
$var reg 1 " wb_ack $end
$scope module uart_top_inst $end
$var wire 4 5 addr [3:0] $end
$var wire 1 $ clk $end
$var wire 1 , read_en $end
$var wire 1 % rst_n $end
$var wire 1 6 rx_fifo_write $end
$var wire 1 7 tx_fifo_read $end
$var wire 8 8 wdata [7:0] $end
$var wire 1 1 write_en $end
$var wire 1 9 tx_fifo_write $end
$var wire 8 : tx_fifo_wdata [7:0] $end
$var wire 1 ; tx_fifo_full $end
$var wire 1 < tx_fifo_empty $end
$var wire 8 = tx_fifo_data_out [7:0] $end
$var wire 1 > tx_busy $end
$var wire 1 ? serial_line $end
$var wire 1 @ rx_fifo_read $end
$var wire 1 A rx_fifo_full $end
$var wire 1 B rx_fifo_empty $end
$var wire 8 C rx_fifo_data_out [7:0] $end
$var wire 1 D rx_data_valid $end
$var wire 8 E rx_data [7:0] $end
$var wire 8 F rdata [7:0] $end
$var wire 1 G parity_odd $end
$var wire 1 H parity_error $end
$var wire 1 I parity_enable $end
$var wire 1 # irq $end
$var wire 1 J baud_tick $end
$var wire 1 K baud_16x_tick $end
$var parameter 32 L BAUD_RATE $end
$var parameter 32 M CLK_FREQ $end
$scope module baud_gen_inst $end
$var wire 1 $ clk $end
$var wire 1 % rst_n $end
$var parameter 32 N BAUD_RATE $end
$var parameter 32 O CLKS_PER_BIT $end
$var parameter 64 P CLKS_PER_BIT_16X $end
$var parameter 32 Q CLK_FREQ $end
$var reg 1 K baud_16x_tick $end
$var reg 1 J baud_tick $end
$var reg 13 R counter [12:0] $end
$var reg 9 S counter_16x [8:0] $end
$upscope $end
$scope module rx_fifo $end
$var wire 1 $ clk $end
$var wire 1 % rst_n $end
$var wire 1 6 write_en $end
$var wire 1 @ read_en $end
$var wire 1 A full $end
$var wire 1 B empty $end
$var wire 8 T data_in [7:0] $end
$var parameter 32 U DEPTH $end
$var parameter 32 V WIDTH $end
$var reg 5 W count [4:0] $end
$var reg 8 X data_out [7:0] $end
$var reg 4 Y read_ptr [3:0] $end
$var reg 4 Z write_ptr [3:0] $end
$upscope $end
$scope module tx_fifo $end
$var wire 1 $ clk $end
$var wire 1 7 read_en $end
$var wire 1 % rst_n $end
$var wire 1 9 write_en $end
$var wire 1 ; full $end
$var wire 1 < empty $end
$var wire 8 [ data_in [7:0] $end
$var parameter 32 \ DEPTH $end
$var parameter 32 ] WIDTH $end
$var reg 5 ^ count [4:0] $end
$var reg 8 _ data_out [7:0] $end
$var reg 4 ` read_ptr [3:0] $end
$var reg 4 a write_ptr [3:0] $end
$upscope $end
$scope module uart_regs_inst $end
$var wire 4 b addr [3:0] $end
$var wire 1 $ clk $end
$var wire 1 # irq $end
$var wire 1 , read_en $end
$var wire 1 % rst_n $end
$var wire 1 B rx_fifo_empty $end
$var wire 8 c rx_fifo_rdata [7:0] $end
$var wire 1 ; tx_fifo_full $end
$var wire 8 d wdata [7:0] $end
$var wire 1 1 write_en $end
$var wire 1 G parity_odd $end
$var wire 1 H parity_error $end
$var wire 1 I parity_enable $end
$var parameter 4 e CONTROL_ADDR $end
$var parameter 4 f RX_ADDR $end
$var parameter 4 g STATUS_ADDR $end
$var parameter 4 h TX_ADDR $end
$var reg 8 i control_reg [7:0] $end
$var reg 8 j rdata [7:0] $end
$var reg 1 @ rx_fifo_read $end
$var reg 8 k status_reg [7:0] $end
$var reg 8 l tx_fifo_wdata [7:0] $end
$var reg 1 9 tx_fifo_write $end
$upscope $end
$scope module uart_rx_inst $end
$var wire 1 K baud_16x_tick $end
$var wire 1 $ clk $end
$var wire 1 I parity_enable $end
$var wire 1 G parity_odd $end
$var wire 1 % rst_n $end
$var wire 1 ? rx $end
$var reg 4 m bit_count [3:0] $end
$var reg 8 n data_out [7:0] $end
$var reg 1 D data_valid $end
$var reg 1 H parity_error $end
$var reg 4 o sample_count [3:0] $end
$var reg 8 p shift_reg [7:0] $end
$var reg 3 q state [2:0] $end
$upscope $end
$scope module uart_tx_inst $end
$var wire 1 J baud_tick $end
$var wire 1 $ clk $end
$var wire 8 r data_in [7:0] $end
$var wire 1 7 data_valid $end
$var wire 1 I parity_enable $end
$var wire 1 G parity_odd $end
$var wire 1 % rst_n $end
$var reg 4 s bit_count [3:0] $end
$var reg 1 > busy $end
$var reg 1 t parity_bit $end
$var reg 8 u shift_reg [7:0] $end
$var reg 3 v state [2:0] $end
$var reg 1 ? tx $end
$upscope $end
$upscope $end
$upscope $end
$scope task wb_read $end
$var reg 4 w addr [3:0] $end
$upscope $end
$scope task wb_write $end
$var reg 4 x addr [3:0] $end
$var reg 8 y data [7:0] $end
$upscope $end
$upscope $end
$enddefinitions $end
$comment Show the parameter values. $end
$dumpall
b0 h
b1000 g
b100 f
b1100 e
b1000 ]
b10000 \
b1000 V
b10000 U
b10111110101111000010000000 Q
b101000101 P
b1010001011000 O
b10010110000000 N
b10111110101111000010000000 M
b10010110000000 L
b10111110101111000010000000 4
b10010110000000 3
$end
#0
$dumpvars
bx y
bx x
bx w
b0 v
b0 u
xt
b0 s
bx r
b0 q
b0 p
b0 o
b0 n
b0 m
b0 l
b10 k
b0 j
b0 i
b0 d
bx c
b0 b
b0 a
b0 `
bx _
b0 ^
b0 [
b0 Z
b0 Y
bx X
b0 W
b0 T
b0 S
b0 R
0K
0J
0I
0H
0G
b0 F
b0 E
0D
bx C
1B
0A
0@
1?
0>
bx =
1<
0;
b0 :
09
b0 8
07
06
b0 5
b0 2
01
b0 0
b0 /
b0 .
b0 -
0,
b0 +
0*
b0 )
0(
0'
b0 &
0%
0$
0#
0"
b0 !
$end
#10
1$
#20
0$
#30
1$
#40
0$
#50
1$
#60
0$
#70
1$
#80
0$
#90
1$
#100
b1 y
b1100 x
0$
1%
#110
11
b1 S
b1 R
1(
1'
1*
b1 0
b1 8
b1 d
b1 )
b1 /
b1100 +
b1100 5
b1100 b
b1100 &
b1100 -
1$
#120
0$
#130
01
0*
0(
0'
b10100101 y
b0 x
1"
b10 S
b10 R
b1 i
1$
#140
0$
#150
11
b11 S
b11 R
0"
1(
1'
1*
b10100101 0
b10100101 8
b10100101 d
b10100101 )
b10100101 /
b0 +
b0 5
b0 b
b0 &
b0 -
1$
#160
0$
#170
01
0*
0(
0'
1"
b100 S
b100 R
b10100101 :
b10100101 [
b10100101 l
19
1$
#180
0$
#190
17
0<
09
b101 S
b101 R
b1 ^
b1 a
0"
1$
#200
0$
#210
07
1<
b0 ^
b1 `
b10100101 =
b10100101 _
b10100101 r
b110 S
b110 R
1$
#220
0$
#230
b111 S
b111 R
1$
#240
0$
#250
b1000 S
b1000 R
1$
#260
0$
#270
b1001 S
b1001 R
1$
#280
0$
#290
b1010 S
b1010 R
1$
#300
0$
#310
b1011 S
b1011 R
1$
#320
0$
#330
b1100 S
b1100 R
1$
#340
0$
#350
b1101 S
b1101 R
1$
#360
0$
#370
b1110 S
b1110 R
1$
#380
0$
#390
b1111 S
b1111 R
1$
#400
0$
#410
b10000 S
b10000 R
1$
#420
0$
#430
b10001 S
b10001 R
1$
#440
0$
#450
b10010 S
b10010 R
1$
#460
0$
#470
b10011 S
b10011 R
1$
#480
0$
#490
b10100 S
b10100 R
1$
#500
0$
#510
b10101 S
b10101 R
1$
#520
0$
#530
b10110 S
b10110 R
1$
#540
0$
#550
b10111 S
b10111 R
1$
#560
0$
#570
b11000 S
b11000 R
1$
#580
0$
#590
b11001 S
b11001 R
1$
#600
0$
#610
b11010 S
b11010 R
1$
#620
0$
#630
b11011 S
b11011 R
1$
#640
0$
#650
b11100 S
b11100 R
1$
#660
0$
#670
b11101 S
b11101 R
1$
#680
0$
#690
b11110 S
b11110 R
1$
#700
0$
#710
b11111 S
b11111 R
1$
#720
0$
#730
b100000 S
b100000 R
1$
#740
0$
#750
b100001 S
b100001 R
1$
#760
0$
#770
b100010 S
b100010 R
1$
#780
0$
#790
b100011 S
b100011 R
1$
#800
0$
#810
b100100 S
b100100 R
1$
#820
0$
#830
b100101 S
b100101 R
1$
#840
0$
#850
b100110 S
b100110 R
1$
#860
0$
#870
b100111 S
b100111 R
1$
#880
0$
#890
b101000 S
b101000 R
1$
#900
0$
#910
b101001 S
b101001 R
1$
#920
0$
#930
b101010 S
b101010 R
1$
#940
0$
#950
b101011 S
b101011 R
1$
#960
0$
#970
b101100 S
b101100 R
1$
#980
0$
#990
b101101 S
b101101 R
1$
#1000
0$
#1010
b101110 S
b101110 R
1$
#1020
0$
#1030
b101111 S
b101111 R
1$
#1040
0$
#1050
b110000 S
b110000 R
1$
#1060
0$
#1070
b110001 S
b110001 R
1$
#1080
0$
#1090
b110010 S
b110010 R
1$
#1100
0$
#1110
b110011 S
b110011 R
1$
#1120
0$
#1130
b110100 S
b110100 R
1$
#1140
0$
#1150
b110101 S
b110101 R
1$
#1160
0$
#1170
b110110 S
b110110 R
1$
#1180
0$
#1190
b110111 S
b110111 R
1$
#1200
0$
#1210
b111000 S
b111000 R
1$
#1220
0$
#1230
b111001 S
b111001 R
1$
#1240
0$
#1250
b111010 S
b111010 R
1$
#1260
0$
#1270
b111011 S
b111011 R
1$
#1280
0$
#1290
b111100 S
b111100 R
1$
#1300
0$
#1310
b111101 S
b111101 R
1$
#1320
0$
#1330
b111110 S
b111110 R
1$
#1340
0$
#1350
b111111 S
b111111 R
1$
#1360
0$
#1370
b1000000 S
b1000000 R
1$
#1380
0$
#1390
b1000001 S
b1000001 R
1$
#1400
0$
#1410
b1000010 S
b1000010 R
1$
#1420
0$
#1430
b1000011 S
b1000011 R
1$
#1440
0$
#1450
b1000100 S
b1000100 R
1$
#1460
0$
#1470
b1000101 S
b1000101 R
1$
#1480
0$
#1490
b1000110 S
b1000110 R
1$
#1500
0$
#1510
b1000111 S
b1000111 R
1$
#1520
0$
#1530
b1001000 S
b1001000 R
1$
#1540
0$
#1550
b1001001 S
b1001001 R
1$
#1560
0$
#1570
b1001010 S
b1001010 R
1$
#1580
0$
#1590
b1001011 S
b1001011 R
1$
#1600
0$
#1610
b1001100 S
b1001100 R
1$
#1620
0$
#1630
b1001101 S
b1001101 R
1$
#1640
0$
#1650
b1001110 S
b1001110 R
1$
#1660
0$
#1670
b1001111 S
b1001111 R
1$
#1680
0$
#1690
b1010000 S
b1010000 R
1$
#1700
0$
#1710
b1010001 S
b1010001 R
1$
#1720
0$
#1730
b1010010 S
b1010010 R
1$
#1740
0$
#1750
b1010011 S
b1010011 R
1$
#1760
0$
#1770
b1010100 S
b1010100 R
1$
#1780
0$
#1790
b1010101 S
b1010101 R
1$
#1800
0$
#1810
b1010110 S
b1010110 R
1$
#1820
0$
#1830
b1010111 S
b1010111 R
1$
#1840
0$
#1850
b1011000 S
b1011000 R
1$
#1860
0$
#1870
b1011001 S
b1011001 R
1$
#1880
0$
#1890
b1011010 S
b1011010 R
1$
#1900
0$
#1910
b1011011 S
b1011011 R
1$
#1920
0$
#1930
b1011100 S
b1011100 R
1$
#1940
0$
#1950
b1011101 S
b1011101 R
1$
#1960
0$
#1970
b1011110 S
b1011110 R
1$
#1980
0$
#1990
b1011111 S
b1011111 R
1$
#2000
0$
#2010
b1100000 S
b1100000 R
1$
#2020
0$
#2030
b1100001 S
b1100001 R
1$
#2040
0$
#2050
b1100010 S
b1100010 R
1$
#2060
0$
#2070
b1100011 S
b1100011 R
1$
#2080
0$
#2090
b1100100 S
b1100100 R
1$
#2100
0$
#2110
b1100101 S
b1100101 R
1$
#2120
0$
#2130
b1100110 S
b1100110 R
1$
#2140
0$
#2150
b1100111 S
b1100111 R
1$
#2160
0$
#2170
b1101000 S
b1101000 R
1$
#2180
0$
#2190
b1101001 S
b1101001 R
1$
#2200
0$
#2210
b1101010 S
b1101010 R
1$
#2220
0$
#2230
b1101011 S
b1101011 R
1$
#2240
0$
#2250
b1101100 S
b1101100 R
1$
#2260
0$
#2270
b1101101 S
b1101101 R
1$
#2280
0$
#2290
b1101110 S
b1101110 R
1$
#2300
0$
#2310
b1101111 S
b1101111 R
1$
#2320
0$
#2330
b1110000 S
b1110000 R
1$
#2340
0$
#2350
b1110001 S
b1110001 R
1$
#2360
0$
#2370
b1110010 S
b1110010 R
1$
#2380
0$
#2390
b1110011 S
b1110011 R
1$
#2400
0$
#2410
b1110100 S
b1110100 R
1$
#2420
0$
#2430
b1110101 S
b1110101 R
1$
#2440
0$
#2450
b1110110 S
b1110110 R
1$
#2460
0$
#2470
b1110111 S
b1110111 R
1$
#2480
0$
#2490
b1111000 S
b1111000 R
1$
#2500
0$
#2510
b1111001 S
b1111001 R
1$
#2520
0$
#2530
b1111010 S
b1111010 R
1$
#2540
0$
#2550
b1111011 S
b1111011 R
1$
#2560
0$
#2570
b1111100 S
b1111100 R
1$
#2580
0$
#2590
b1111101 S
b1111101 R
1$
#2600
0$
#2610
b1111110 S
b1111110 R
1$
#2620
0$
#2630
b1111111 S
b1111111 R
1$
#2640
0$
#2650
b10000000 S
b10000000 R
1$
#2660
0$
#2670
b10000001 S
b10000001 R
1$
#2680
0$
#2690
b10000010 S
b10000010 R
1$
#2700
0$
#2710
b10000011 S
b10000011 R
1$
#2720
0$
#2730
b10000100 S
b10000100 R
1$
#2740
0$
#2750
b10000101 S
b10000101 R
1$
#2760
0$
#2770
b10000110 S
b10000110 R
1$
#2780
0$
#2790
b10000111 S
b10000111 R
1$
#2800
0$
#2810
b10001000 S
b10001000 R
1$
#2820
0$
#2830
b10001001 S
b10001001 R
1$
#2840
0$
#2850
b10001010 S
b10001010 R
1$
#2860
0$
#2870
b10001011 S
b10001011 R
1$
#2880
0$
#2890
b10001100 S
b10001100 R
1$
#2900
0$
#2910
b10001101 S
b10001101 R
1$
#2920
0$
#2930
b10001110 S
b10001110 R
1$
#2940
0$
#2950
b10001111 S
b10001111 R
1$
#2960
0$
#2970
b10010000 S
b10010000 R
1$
#2980
0$
#2990
b10010001 S
b10010001 R
1$
#3000
0$
#3010
b10010010 S
b10010010 R
1$
#3020
0$
#3030
b10010011 S
b10010011 R
1$
#3040
0$
#3050
b10010100 S
b10010100 R
1$
#3060
0$
#3070
b10010101 S
b10010101 R
1$
#3080
0$
#3090
b10010110 S
b10010110 R
1$
#3100
0$
#3110
b10010111 S
b10010111 R
1$
#3120
0$
#3130
b10011000 S
b10011000 R
1$
#3140
0$
#3150
b10011001 S
b10011001 R
1$
#3160
0$
#3170
b10011010 S
b10011010 R
1$
#3180
0$
#3190
b10011011 S
b10011011 R
1$
#3200
0$
#3210
b10011100 S
b10011100 R
1$
#3220
0$
#3230
b10011101 S
b10011101 R
1$
#3240
0$
#3250
b10011110 S
b10011110 R
1$
#3260
0$
#3270
b10011111 S
b10011111 R
1$
#3280
0$
#3290
b10100000 S
b10100000 R
1$
#3300
0$
#3310
b10100001 S
b10100001 R
1$
#3320
0$
#3330
b10100010 S
b10100010 R
1$
#3340
0$
#3350
b10100011 S
b10100011 R
1$
#3360
0$
#3370
b10100100 S
b10100100 R
1$
#3380
0$
#3390
b10100101 S
b10100101 R
1$
#3400
0$
#3410
b10100110 S
b10100110 R
1$
#3420
0$
#3430
b10100111 S
b10100111 R
1$
#3440
0$
#3450
b10101000 S
b10101000 R
1$
#3460
0$
#3470
b10101001 S
b10101001 R
1$
#3480
0$
#3490
b10101010 S
b10101010 R
1$
#3500
0$
#3510
b10101011 S
b10101011 R
1$
#3520
0$
#3530
b10101100 S
b10101100 R
1$
#3540
0$
#3550
b10101101 S
b10101101 R
1$
#3560
0$
#3570
b10101110 S
b10101110 R
1$
#3580
0$
#3590
b10101111 S
b10101111 R
1$
#3600
0$
#3610
b10110000 S
b10110000 R
1$
#3620
0$
#3630
b10110001 S
b10110001 R
1$
#3640
0$
#3650
b10110010 S
b10110010 R
1$
#3660
0$
#3670
b10110011 S
b10110011 R
1$
#3680
0$
#3690
b10110100 S
b10110100 R
1$
#3700
0$
#3710
b10110101 S
b10110101 R
1$
#3720
0$
#3730
b10110110 S
b10110110 R
1$
#3740
0$
#3750
b10110111 S
b10110111 R
1$
#3760
0$
#3770
b10111000 S
b10111000 R
1$
#3780
0$
#3790
b10111001 S
b10111001 R
1$
#3800
0$
#3810
b10111010 S
b10111010 R
1$
#3820
0$
#3830
b10111011 S
b10111011 R
1$
#3840
0$
#3850
b10111100 S
b10111100 R
1$
#3860
0$
#3870
b10111101 S
b10111101 R
1$
#3880
0$
#3890
b10111110 S
b10111110 R
1$
#3900
0$
#3910
b10111111 S
b10111111 R
1$
#3920
0$
#3930
b11000000 S
b11000000 R
1$
#3940
0$
#3950
b11000001 S
b11000001 R
1$
#3960
0$
#3970
b11000010 S
b11000010 R
1$
#3980
0$
#3990
b11000011 S
b11000011 R
1$
#4000
0$
#4010
b11000100 S
b11000100 R
1$
#4020
0$
#4030
b11000101 S
b11000101 R
1$
#4040
0$
#4050
b11000110 S
b11000110 R
1$
#4060
0$
#4070
b11000111 S
b11000111 R
1$
#4080
0$
#4090
b11001000 S
b11001000 R
1$
#4100
0$
#4110
b11001001 S
b11001001 R
1$
#4120
0$
#4130
b11001010 S
b11001010 R
1$
#4140
0$
#4150
b11001011 S
b11001011 R
1$
#4160
0$
#4170
b11001100 S
b11001100 R
1$
#4180
0$
#4190
b11001101 S
b11001101 R
1$
#4200
0$
#4210
b11001110 S
b11001110 R
1$
#4220
0$
#4230
b11001111 S
b11001111 R
1$
#4240
0$
#4250
b11010000 S
b11010000 R
1$
#4260
0$
#4270
b11010001 S
b11010001 R
1$
#4280
0$
#4290
b11010010 S
b11010010 R
1$
#4300
0$
#4310
b11010011 S
b11010011 R
1$
#4320
0$
#4330
b11010100 S
b11010100 R
1$
#4340
0$
#4350
b11010101 S
b11010101 R
1$
#4360
0$
#4370
b11010110 S
b11010110 R
1$
#4380
0$
#4390
b11010111 S
b11010111 R
1$
#4400
0$
#4410
b11011000 S
b11011000 R
1$
#4420
0$
#4430
b11011001 S
b11011001 R
1$
#4440
0$
#4450
b11011010 S
b11011010 R
1$
#4460
0$
#4470
b11011011 S
b11011011 R
1$
#4480
0$
#4490
b11011100 S
b11011100 R
1$
#4500
0$
#4510
b11011101 S
b11011101 R
1$
#4520
0$
#4530
b11011110 S
b11011110 R
1$
#4540
0$
#4550
b11011111 S
b11011111 R
1$
#4560
0$
#4570
b11100000 S
b11100000 R
1$
#4580
0$
#4590
b11100001 S
b11100001 R
1$
#4600
0$
#4610
b11100010 S
b11100010 R
1$
#4620
0$
#4630
b11100011 S
b11100011 R
1$
#4640
0$
#4650
b11100100 S
b11100100 R
1$
#4660
0$
#4670
b11100101 S
b11100101 R
1$
#4680
0$
#4690
b11100110 S
b11100110 R
1$
#4700
0$
#4710
b11100111 S
b11100111 R
1$
#4720
0$
#4730
b11101000 S
b11101000 R
1$
#4740
0$
#4750
b11101001 S
b11101001 R
1$
#4760
0$
#4770
b11101010 S
b11101010 R
1$
#4780
0$
#4790
b11101011 S
b11101011 R
1$
#4800
0$
#4810
b11101100 S
b11101100 R
1$
#4820
0$
#4830
b11101101 S
b11101101 R
1$
#4840
0$
#4850
b11101110 S
b11101110 R
1$
#4860
0$
#4870
b11101111 S
b11101111 R
1$
#4880
0$
#4890
b11110000 S
b11110000 R
1$
#4900
0$
#4910
b11110001 S
b11110001 R
1$
#4920
0$
#4930
b11110010 S
b11110010 R
1$
#4940
0$
#4950
b11110011 S
b11110011 R
1$
#4960
0$
#4970
b11110100 S
b11110100 R
1$
#4980
0$
#4990
b11110101 S
b11110101 R
1$
#5000
0$
#5010
b11110110 S
b11110110 R
1$
#5020
0$
#5030
b11110111 S
b11110111 R
1$
#5040
0$
#5050
b11111000 S
b11111000 R
1$
#5060
0$
#5070
b11111001 S
b11111001 R
1$
#5080
0$
#5090
b11111010 S
b11111010 R
1$
#5100
0$
#5110
b11111011 S
b11111011 R
1$
#5120
0$
#5130
b11111100 S
b11111100 R
1$
#5140
0$
#5150
b11111101 S
b11111101 R
1$
#5160
0$
#5170
b11111110 S
b11111110 R
1$
#5180
0$
#5190
b11111111 S
b11111111 R
1$
#5200
0$
#5210
b100000000 S
b100000000 R
1$
#5220
0$
#5230
b100000001 S
b100000001 R
1$
#5240
0$
#5250
b100000010 S
b100000010 R
1$
#5260
0$
#5270
b100000011 S
b100000011 R
1$
#5280
0$
#5290
b100000100 S
b100000100 R
1$
#5300
0$
#5310
b100000101 S
b100000101 R
1$
#5320
0$
#5330
b100000110 S
b100000110 R
1$
#5340
0$
#5350
b100000111 S
b100000111 R
1$
#5360
0$
#5370
b100001000 S
b100001000 R
1$
#5380
0$
#5390
b100001001 S
b100001001 R
1$
#5400
0$
#5410
b100001010 S
b100001010 R
1$
#5420
0$
#5430
b100001011 S
b100001011 R
1$
#5440
0$
#5450
b100001100 S
b100001100 R
1$
#5460
0$
#5470
b100001101 S
b100001101 R
1$
#5480
0$
#5490
b100001110 S
b100001110 R
1$
#5500
0$
#5510
b100001111 S
b100001111 R
1$
#5520
0$
#5530
b100010000 S
b100010000 R
1$
#5540
0$
#5550
b100010001 S
b100010001 R
1$
#5560
0$
#5570
b100010010 S
b100010010 R
1$
#5580
0$
#5590
b100010011 S
b100010011 R
1$
#5600
0$
#5610
b100010100 S
b100010100 R
1$
#5620
0$
#5630
b100010101 S
b100010101 R
1$
#5640
0$
#5650
b100010110 S
b100010110 R
1$
#5660
0$
#5670
b100010111 S
b100010111 R
1$
#5680
0$
#5690
b100011000 S
b100011000 R
1$
#5700
0$
#5710
b100011001 S
b100011001 R
1$
#5720
0$
#5730
b100011010 S
b100011010 R
1$
#5740
0$
#5750
b100011011 S
b100011011 R
1$
#5760
0$
#5770
b100011100 S
b100011100 R
1$
#5780
0$
#5790
b100011101 S
b100011101 R
1$
#5800
0$
#5810
b100011110 S
b100011110 R
1$
#5820
0$
#5830
b100011111 S
b100011111 R
1$
#5840
0$
#5850
b100100000 S
b100100000 R
1$
#5860
0$
#5870
b100100001 S
b100100001 R
1$
#5880
0$
#5890
b100100010 S
b100100010 R
1$
#5900
0$
#5910
b100100011 S
b100100011 R
1$
#5920
0$
#5930
b100100100 S
b100100100 R
1$
#5940
0$
#5950
b100100101 S
b100100101 R
1$
#5960
0$
#5970
b100100110 S
b100100110 R
1$
#5980
0$
#5990
b100100111 S
b100100111 R
1$
#6000
0$
#6010
b100101000 S
b100101000 R
1$
#6020
0$
#6030
b100101001 S
b100101001 R
1$
#6040
0$
#6050
b100101010 S
b100101010 R
1$
#6060
0$
#6070
b100101011 S
b100101011 R
1$
#6080
0$
#6090
b100101100 S
b100101100 R
1$
#6100
0$
#6110
b100101101 S
b100101101 R
1$
#6120
0$
#6130
b100101110 S
b100101110 R
1$
#6140
0$
#6150
b100101111 S
b100101111 R
1$
#6160
0$
#6170
b100110000 S
b100110000 R
1$
#6180
0$
#6190
b100110001 S
b100110001 R
1$
#6200
0$
#6210
b100110010 S
b100110010 R
1$
#6220
0$
#6230
b100110011 S
b100110011 R
1$
#6240
0$
#6250
b100110100 S
b100110100 R
1$
#6260
0$
#6270
b100110101 S
b100110101 R
1$
#6280
0$
#6290
b100110110 S
b100110110 R
1$
#6300
0$
#6310
b100110111 S
b100110111 R
1$
#6320
0$
#6330
b100111000 S
b100111000 R
1$
#6340
0$
#6350
b100111001 S
b100111001 R
1$
#6360
0$
#6370
b100111010 S
b100111010 R
1$
#6380
0$
#6390
b100111011 S
b100111011 R
1$
#6400
0$
#6410
b100111100 S
b100111100 R
1$
#6420
0$
#6430
b100111101 S
b100111101 R
1$
#6440
0$
#6450
b100111110 S
b100111110 R
1$
#6460
0$
#6470
b100111111 S
b100111111 R
1$
#6480
0$
#6490
b101000000 S
b101000000 R
1$
#6500
0$
#6510
b101000001 S
b101000001 R
1$
#6520
0$
#6530
b101000010 S
b101000010 R
1$
#6540
0$
#6550
b101000011 S
b101000011 R
1$
#6560
0$
#6570
b101000100 S
b101000100 R
1$
#6580
0$
#6590
b0 S
1K
b101000101 R
1$
#6600
0$
#6610
b1 o
0K
b1 S
b101000110 R
1$
#6620
0$
#6630
b10 S
b101000111 R
1$
#6640
0$
#6650
b11 S
b101001000 R
1$
#6660
0$
#6670
b100 S
b101001001 R
1$
#6680
0$
#6690
b101 S
b101001010 R
1$
#6700
0$
#6710
b110 S
b101001011 R
1$
#6720
0$
#6730
b111 S
b101001100 R
1$
#6740
0$
#6750
b1000 S
b101001101 R
1$
#6760
0$
#6770
b1001 S
b101001110 R
1$
#6780
0$
#6790
b1010 S
b101001111 R
1$
#6800
0$
#6810
b1011 S
b101010000 R
1$
#6820
0$
#6830
b1100 S
b101010001 R
1$
#6840
0$
#6850
b1101 S
b101010010 R
1$
#6860
0$
#6870
b1110 S
b101010011 R
1$
#6880
0$
#6890
b1111 S
b101010100 R
1$
#6900
0$
#6910
b10000 S
b101010101 R
1$
#6920
0$
#6930
b10001 S
b101010110 R
1$
#6940
0$
#6950
b10010 S
b101010111 R
1$
#6960
0$
#6970
b10011 S
b101011000 R
1$
#6980
0$
#6990
b10100 S
b101011001 R
1$
#7000
0$
#7010
b10101 S
b101011010 R
1$
#7020
0$
#7030
b10110 S
b101011011 R
1$
#7040
0$
#7050
b10111 S
b101011100 R
1$
#7060
0$
#7070
b11000 S
b101011101 R
1$
#7080
0$
#7090
b11001 S
b101011110 R
1$
#7100
0$
#7110
b11010 S
b101011111 R
1$
#7120
0$
#7130
b11011 S
b101100000 R
1$
#7140
0$
#7150
b11100 S
b101100001 R
1$
#7160
0$
#7170
b11101 S
b101100010 R
1$
#7180
0$
#7190
b11110 S
b101100011 R
1$
#7200
0$
#7210
b11111 S
b101100100 R
1$
#7220
0$
#7230
b100000 S
b101100101 R
1$
#7240
0$
#7250
b100001 S
b101100110 R
1$
#7260
0$
#7270
b100010 S
b101100111 R
1$
#7280
0$
#7290
b100011 S
b101101000 R
1$
#7300
0$
#7310
b100100 S
b101101001 R
1$
#7320
0$
#7330
b100101 S
b101101010 R
1$
#7340
0$
#7350
b100110 S
b101101011 R
1$
#7360
0$
#7370
b100111 S
b101101100 R
1$
#7380
0$
#7390
b101000 S
b101101101 R
1$
#7400
0$
#7410
b101001 S
b101101110 R
1$
#7420
0$
#7430
b101010 S
b101101111 R
1$
#7440
0$
#7450
b101011 S
b101110000 R
1$
#7460
0$
#7470
b101100 S
b101110001 R
1$
#7480
0$
#7490
b101101 S
b101110010 R
1$
#7500
0$
#7510
b101110 S
b101110011 R
1$
#7520
0$
#7530
b101111 S
b101110100 R
1$
#7540
0$
#7550
b110000 S
b101110101 R
1$
#7560
0$
#7570
b110001 S
b101110110 R
1$
#7580
0$
#7590
b110010 S
b101110111 R
1$
#7600
0$
#7610
b110011 S
b101111000 R
1$
#7620
0$
#7630
b110100 S
b101111001 R
1$
#7640
0$
#7650
b110101 S
b101111010 R
1$
#7660
0$
#7670
b110110 S
b101111011 R
1$
#7680
0$
#7690
b110111 S
b101111100 R
1$
#7700
0$
#7710
b111000 S
b101111101 R
1$
#7720
0$
#7730
b111001 S
b101111110 R
1$
#7740
0$
#7750
b111010 S
b101111111 R
1$
#7760
0$
#7770
b111011 S
b110000000 R
1$
#7780
0$
#7790
b111100 S
b110000001 R
1$
#7800
0$
#7810
b111101 S
b110000010 R
1$
#7820
0$
#7830
b111110 S
b110000011 R
1$
#7840
0$
#7850
b111111 S
b110000100 R
1$
#7860
0$
#7870
b1000000 S
b110000101 R
1$
#7880
0$
#7890
b1000001 S
b110000110 R
1$
#7900
0$
#7910
b1000010 S
b110000111 R
1$
#7920
0$
#7930
b1000011 S
b110001000 R
1$
#7940
0$
#7950
b1000100 S
b110001001 R
1$
#7960
0$
#7970
b1000101 S
b110001010 R
1$
#7980
0$
#7990
b1000110 S
b110001011 R
1$
#8000
0$
#8010
b1000111 S
b110001100 R
1$
#8020
0$
#8030
b1001000 S
b110001101 R
1$
#8040
0$
#8050
b1001001 S
b110001110 R
1$
#8060
0$
#8070
b1001010 S
b110001111 R
1$
#8080
0$
#8090
b1001011 S
b110010000 R
1$
#8100
0$
#8110
b1001100 S
b110010001 R
1$
#8120
0$
#8130
b1001101 S
b110010010 R
1$
#8140
0$
#8150
b1001110 S
b110010011 R
1$
#8160
0$
#8170
b1001111 S
b110010100 R
1$
#8180
0$
#8190
b1010000 S
b110010101 R
1$
#8200
0$
#8210
b1010001 S
b110010110 R
1$
#8220
0$
#8230
b1010010 S
b110010111 R
1$
#8240
0$
#8250
b1010011 S
b110011000 R
1$
#8260
0$
#8270
b1010100 S
b110011001 R
1$
#8280
0$
#8290
b1010101 S
b110011010 R
1$
#8300
0$
#8310
b1010110 S
b110011011 R
1$
#8320
0$
#8330
b1010111 S
b110011100 R
1$
#8340
0$
#8350
b1011000 S
b110011101 R
1$
#8360
0$
#8370
b1011001 S
b110011110 R
1$
#8380
0$
